Division,WeightClassKg,Place,Name,Team,BodyweightKg,Best3SquatKg,Best3BenchKg,Best3DeadliftKg,TotalKg,Equipment,Event,Sex
Boys,51.71,1,Chris Ortiz,Pecos,51.62,149.69,88.45,161.03,399.16,Single-ply,SBD,M
Boys,51.71,2,Nathan Mendiaz,Monahans,49.35,140.61,83.91,127.01,351.53,Single-ply,SBD,M
Boys,51.71,3,David Carrasco,Big Lake Reagan County,47.63,115.67,61.23,138.35,315.25,Single-ply,SBD,M
Boys,51.71,4,Robert Zapata,Sonora,51.71,90.72,65.77,138.35,294.84,Single-ply,SBD,M
Boys,55.79,1,Noel Ybarra,Pecos,55.25,140.61,86.18,165.56,392.36,Single-ply,SBD,M
Boys,55.79,2,Oscar Ortiz,Big Lake Reagan County,55.79,133.81,77.11,151.95,362.87,Single-ply,SBD,M
Boys,55.79,3,Marcus Perez,Ozona,53.89,88.45,49.9,102.06,240.4,Single-ply,SBD,M
Boys,55.79,4,Rock Carrasco,Pecos,52.62,74.84,54.43,90.72,219.99,Single-ply,SBD,M
Boys,59.87,1,Daniel Hernandez,Pecos,59.87,170.1,97.52,167.83,435.45,Single-ply,SBD,M
Boys,59.87,2,Glenn Crowder,Iraan,58.42,147.42,83.91,181.44,412.77,Single-ply,SBD,M
Boys,59.87,3,Vinny Rodriguez,Crane,59.87,138.35,79.38,136.08,353.8,Single-ply,SBD,M
Boys,59.87,4,Kody Collins,Monahans,57.61,131.54,74.84,127.01,333.39,Single-ply,SBD,M
Boys,59.87,5,Devon Salas,Pecos,58.88,102.06,61.23,127.01,290.3,Single-ply,SBD,M
Boys,59.87,6,Avary Keener,Monahans,56.61,99.79,56.7,117.93,274.42,Single-ply,SBD,M
Boys,67.13,1,Anthony Perez,Ozona,65.77,165.56,95.25,190.51,451.32,Single-ply,SBD,M
Boys,67.13,2,Elvis Tarango,Valentine,66.68,165.56,99.79,183.7,449.06,Single-ply,SBD,M
Boys,67.13,3,Oscar Solís,Pecos,66.59,165.56,99.79,172.37,437.72,Single-ply,SBD,M
Boys,67.13,4,Saul Morin,Big Lake Reagan County,67.04,165.56,83.91,181.44,430.91,Single-ply,SBD,M
Boys,67.13,5,Emmanuel Sarabia,Ozona,64.77,154.22,81.65,170.1,405.97,Single-ply,SBD,M
Boys,67.13,6,Mario De Luna,Iraan,61.6,154.22,77.11,154.22,385.55,Single-ply,SBD,M
Boys,67.13,7,Henry Ramos,Sonora,61.69,154.22,77.11,154.22,385.55,Single-ply,SBD,M
Boys,67.13,8,Shay Smith #2,McCamey,64.77,147.42,70.31,167.83,385.55,Single-ply,SBD,M
Boys,67.13,9,Ryan Orona,Pecos,66.13,113.4,92.99,170.1,376.48,Single-ply,SBD,M
Boys,67.13,10,Eulices Lupercio,Crane,66.68,136.08,97.52,142.88,376.48,Single-ply,SBD,M
Boys,67.13,11,Skylar Short,Alpine,63.41,138.35,99.79,133.81,371.95,Single-ply,SBD,M
Boys,67.13,12,Trey Ruiz,Alpine,66.22,124.74,90.72,145.15,360.61,Single-ply,SBD,M
Boys,67.13,13,Bryan Salinas,Ozona,67.13,136.08,70.31,122.47,328.85,Single-ply,SBD,M
Boys,67.13,14,Jalen Ybarra,Crane,63.41,102.06,65.77,124.74,292.57,Single-ply,SBD,M
Boys,67.13,DQ,Dylan Vargas,Crane,62.96,131.54,,,,Single-ply,SBD,M
Boys,67.13,DQ,Uriel Vazquez,Crane,64.32,113.4,,,,Single-ply,SBD,M
Boys,74.84,1,John Jurado,Ozona,72.94,263.08,129.27,233.6,625.96,Single-ply,SBD,M
Boys,74.84,2,Trino Castaneda,Crane,72.57,181.44,111.13,172.37,464.93,Single-ply,SBD,M
Boys,74.84,3,Coty Beard,Monahans,74.39,167.83,102.06,188.24,458.13,Single-ply,SBD,M
Boys,74.84,4,Angel McKee,McCamey,70.67,165.56,88.45,181.44,435.45,Single-ply,SBD,M
Boys,74.84,5,Antonio Rico,Big Lake Reagan County,69.4,151.95,106.59,158.76,417.3,Single-ply,SBD,M
Boys,74.84,6,Gunner Adams,McCamey,70.22,151.95,88.45,170.1,410.5,Single-ply,SBD,M
Boys,74.84,7,Matteo Nunez,Monahans,74.39,147.42,106.59,147.42,401.43,Single-ply,SBD,M
Boys,74.84,8,Gage Glidewell,Alpine,73.84,151.95,81.65,149.69,383.29,Single-ply,SBD,M
Boys,74.84,9,Joseph Delgado,Sonora,70.67,108.86,68.04,117.93,294.84,Single-ply,SBD,M
Boys,74.84,DQ,Kevin Martinez,Sonora,68.04,190.51,,,,Single-ply,SBD,M
Boys,82.1,1,Ralphy Salas,Big Lake Reagan County,80.2,183.7,106.59,183.7,474,Single-ply,SBD,M
Boys,82.1,2,Camilo Salcedo,Crane,78.47,172.37,102.06,181.44,455.86,Single-ply,SBD,M
Boys,82.1,3,Adrean Perez,Crane,77.11,158.76,88.45,181.44,428.64,Single-ply,SBD,M
Boys,82.1,4,Victor Carrasco,Alpine,77.56,165.56,83.91,179.17,428.64,Single-ply,SBD,M
Boys,82.1,5,Georgio Dovigi,Pecos,80.65,142.88,79.38,154.22,376.48,Single-ply,SBD,M
Boys,82.1,6,Kodee Warriner,Big Lake Reagan County,77.47,133.81,72.57,165.56,371.95,Single-ply,SBD,M
Boys,82.1,7,Jose Robles,Sonora,77.56,111.13,95.25,102.06,308.44,Single-ply,SBD,M
Boys,82.1,8,Carlos Martinez #26,Ozona,76.11,81.65,68.04,95.25,244.94,Single-ply,SBD,M
Boys,89.81,1,Aliq DeLeon,McCamey,87.45,206.38,145.15,226.8,578.33,Single-ply,SBD,M
Boys,89.81,2,Elias Terrazes,Alpine,84.28,185.97,106.59,201.85,494.42,Single-ply,SBD,M
Boys,89.81,3,Matt Ligon,Monahans,85.73,188.24,102.06,172.37,462.66,Single-ply,SBD,M
Boys,89.81,4,Jonathan Garcia #6,Pecos,83.82,161.03,113.4,170.1,444.52,Single-ply,SBD,M
Boys,89.81,5,Hunter Maynard,McCamey,84.37,151.95,108.86,183.7,444.52,Single-ply,SBD,M
Boys,89.81,6,Richard Contreras,Alpine,87.09,154.22,90.72,161.03,405.97,Single-ply,SBD,M
Boys,89.81,7,Gil Baeza,Pecos,84.28,136.08,97.52,167.83,401.43,Single-ply,SBD,M
Boys,89.81,8,Caleb Vega,Alpine,83.91,136.08,90.72,136.08,362.87,Single-ply,SBD,M
Boys,89.81,9,Nico Ortiz,Big Lake Reagan County,89.81,131.54,86.18,140.61,358.34,Single-ply,SBD,M
Boys,99.79,1,JD Esquivel,Big Lake Reagan County,99.79,265.35,131.54,249.48,646.37,Single-ply,SBD,M
Boys,99.79,2,Nick Miller #1,Alpine,92.44,206.38,115.67,208.65,530.7,Single-ply,SBD,M
Boys,99.79,3,Andrez Flores,Crane,98.88,213.19,131.54,183.7,528.44,Single-ply,SBD,M
Boys,99.79,4,Josh Caldwell,Monahans,97.89,206.38,90.72,197.31,494.42,Single-ply,SBD,M
Boys,99.79,5,Sam Prewit,Pecos,98.79,192.78,115.67,181.44,489.88,Single-ply,SBD,M
Boys,99.79,6,Nestor Gomez,Crane,93.8,136.08,92.99,149.69,378.75,Single-ply,SBD,M
Boys,99.79,7,Michael Muniz,Iraan,94.8,136.08,65.77,142.88,344.73,Single-ply,SBD,M
Boys,99.79,8,Christian Baca,Pecos,93.89,113.4,70.31,158.76,342.46,Single-ply,SBD,M
Boys,99.79,9,Dylan Mendoza,Ozona,99.7,86.18,52.16,104.33,242.67,Single-ply,SBD,M
Boys,109.77,1,Angel DeLuna,Big Lake Reagan County,109.77,294.84,149.69,249.48,694,Single-ply,SBD,M
Boys,109.77,2,Ben Madrid,Pecos,108.86,229.06,181.44,226.8,637.3,Single-ply,SBD,M
Boys,109.77,3,Justin Rayos,Pecos,109.32,226.8,165.56,213.19,605.55,Single-ply,SBD,M
Boys,109.77,4,James Phillips #6,Crane,109.77,210.92,149.69,215.46,576.06,Single-ply,SBD,M
Boys,109.77,5,Tristan Ortiz,Big Lake Reagan County,106.14,244.94,95.25,188.24,528.44,Single-ply,SBD,M
Boys,109.77,6,Julian Gervasio,Pecos,109.32,206.38,115.67,192.78,514.83,Single-ply,SBD,M
Boys,109.77,7,Abel Melendez,Pecos,101.06,190.51,131.54,181.44,503.49,Single-ply,SBD,M
Boys,109.77,8,Taelor Pister,McCamey,101.97,181.44,122.47,197.31,501.22,Single-ply,SBD,M
Boys,109.77,9,Luke Arana,McCamey,100.61,181.44,95.25,161.03,437.72,Single-ply,SBD,M
Boys,109.77,10,Lucas Delgado,Pecos,103.78,181.44,79.38,158.76,419.57,Single-ply,SBD,M
Boys,109.77,11,Hector Diaz,Crane,103.33,142.88,81.65,170.1,394.63,Single-ply,SBD,M
Boys,124.74,1,Oscar Gutierrez,Monahans,124.28,297.1,165.56,219.99,682.66,Single-ply,SBD,M
Boys,124.74,2,Chris LeBeouf,Pecos,120.56,258.55,170.1,240.4,669.05,Single-ply,SBD,M
Boys,124.74,3,Johnny Maldonado,Pecos,119.66,226.8,127.01,240.4,594.21,Single-ply,SBD,M
Boys,124.74,4,Ramon Flores,Monahans,112.04,210.92,138.35,229.06,578.33,Single-ply,SBD,M
Boys,124.74,5,Nelson McGrew,Pecos,120.66,226.8,102.06,226.8,555.65,Single-ply,SBD,M
Boys,124.74,6,Jullian Guerra,Sonora,120.11,185.97,147.42,170.1,503.49,Single-ply,SBD,M
Boys,124.74,7,Ricky Rosales,Pecos,115.67,185.97,113.4,170.1,469.47,Single-ply,SBD,M
Boys,124.74,8,Hagen Leach,Crane,117.48,142.88,120.2,170.1,433.18,Single-ply,SBD,M
Boys,124.74,9,Alexis Rosas,Crane,111.04,149.69,92.99,147.42,390.09,Single-ply,SBD,M
Boys,124.74,10,Josh Price,Pecos,120.56,122.47,72.57,149.69,344.73,Single-ply,SBD,M
Boys,124.74+,1,Ernie Veloz,Big Lake Reagan County,144.7,276.69,147.42,226.8,650.91,Single-ply,SBD,M
Boys,124.74+,2,Malcolm Montez,Monahans,146.42,258.55,147.42,215.46,621.42,Single-ply,SBD,M
Boys,124.74+,3,Nathan Quiroz,Monahans,129.18,201.85,104.33,181.44,487.61,Single-ply,SBD,M
Boys,124.74+,4,Eddie Sotelo,Pecos,139.71,204.12,92.99,181.44,478.54,Single-ply,SBD,M
Boys,124.74+,5,Matthew Ortiz,Pecos,137.8,170.1,115.67,170.1,455.86,Single-ply,SBD,M
Boys,124.74+,6,Ray Kimbrell,Sonora,137.44,158.76,102.06,158.76,419.57,Single-ply,SBD,M
Boys,124.74+,7,Greg DeHoyos,Ozona,131.54,136.08,90.72,149.69,376.48,Single-ply,SBD,M
Boys,,NS,Sebi Jimenez,McCamey,,,,,,Single-ply,SBD,M
Boys,,NS,George Valenzuela,Alpine,,,,,,Single-ply,SBD,M
Boys,,NS,Fransico Rivera,Ozona,,,,,,Single-ply,SBD,M
